<svg width="20" height="16" viewBox="0 0 20 16" fill="none" xmlns="http://www.w3.org/2000/svg">
<path d="M20 9.00023C20 8.84608 19.9068 8.64123 19.8121 8.54171L14.4788 2.87477C14.2298 2.61738 13.8264 2.58761 13.5362 2.84873C13.2767 3.08241 13.2702 3.53791 13.5102 3.7916L17.7913 8.3334H0.666618C0.298309 8.3334 0 8.63195 0 9.00002C0 9.36833 0.298553 9.66664 0.666618 9.66664H17.7913L13.5102 14.2084C13.2702 14.4621 13.2872 14.9065 13.5362 15.1511C13.7989 15.4094 14.2338 15.3864 14.4788 15.125L19.8121 9.45833C19.9688 9.30464 19.9974 9.15652 20 9.00004V9.00023Z" fill="#4CA9F5"/>
</svg>
